ACP Training,ACP Training Description,presentation,1
Agile Coaching,Agile Coaching Description,presentation,2
Agile Engineering,Agile Engineering Description,presentation,2
Agile Fundamentals,Agile Fundamentals Description,presentation,3
Agile Project Management,Agile Project Management Description,presentation,2
Agile Testing,Agile Testing Description,workshop,1
Application Security Awareness,Application Security Awareness Description,presentation,3
Automated Testing,Automated Testing Description,presentation,3
DevOps Leadership Workshop,DevOps Leadership Workshop Description,workshop,1
DevOps Test Integration,DevOps Test Integration Description,presentation,2
Foundations of DevOps,Foundations of DevOps Description,presentation,2
Fundamentals of Software Security,Fundamentals of Software Security Description,workshop,1
Introduction to Agile for Managers,Introduction to Agile for Managers Description,presentation,1
Jira Training,Jira Training Description,presentation,2
Load and Performance Testing,Load and Performance Testing Description,workshop,1
Mobile Application Testing,Mobile Application Testing Description,presentation,2
Mobile Security Testing,Mobile Security Testing Description,presentation,1
Secure Code Development,Secure Code Development Description,workshop,1
SecureCI Training,SecureCI Training Description,presentation,2
Testing with JMeter,Testing with JMeter Description,workshop,1
